"\"pramataNo\"","\"extracted_text\"","\"page\"","\"l\"","\"t\"","\"r\"","\"b\"","\"width\"","\"height\""
"303037","Me","2","58","381","325","458","774","1094"
"300054","9/10/2016^	^ ^ ^ ^ ^ ^","1","356","450","1723","1751","1348","1892"
"300050",". ...^	'r'hi '01:19Y-Tiel kielemeque.r.0.9e.m..marege.e.oei ij.:yLmilfehl. 		..	 .  .  :   	. 	..   ..	. .		.	. .	e	... '..;    	 			   	. . . . ..  		.	e '.    ........ .	 .. : 	e.:      e  	  .	 	.	..  . . . ..				.	 	.	. ........ I..  '	 .		 	.		 . .","3","341","429","222","246","1348","960"
"300182",": March 23, 2017","5","1153","1308","314","354","1515","2127"
"300046","ei-","1","775","1043","1686","1726","1348","1892"
"303096","effective January 1st, 2014","1","193","417","382","414","1225","1719.9899902"
"300042","&(_I 04D4r,)-.k$-.(+","3","617","832","1491","1526","1348","1892"
"299463","Felintoxy l', 2016","1","419","564","385","416","1225","1719.9899902"
"301895","I 'I January 2017.","1","493","610","154","178","922","1312"
"303097","effective E, jailuktyl_qui c","1","388","610","435","466","1225","1719.9899902"
"299677","SSE DATE:	28-Mar-17","2","176","294","143","165","942","671"
"299681","SSF DATE:	28-Mat-1TA","2","176","289","149","170","942","671"
"299717","Date: 16th June 2015","1","633","816","160","219","942","1322"
"299529","I	I	I","21","734","824","347","372","1225","872.99700928"
"299741","~~~ , , .   xi...-. . 19. ,9 --9.  LSSF DATE:	23/06/2016","9","212","358","105","130","942","671"
"302684","For a High Quality version, kindly refer to the Key term Excel Download","1","238","1383","2","74","1518","1964"
"299745","SSF DATE:	22/03/2015","23","172","294","149","172","942","671"
"299782","=I	.....	J. L ...$","1","124","144","428","505","942","671"
"300034","---- I- I- 1-1 1-1 1 11 1 IF, II 1. A III 11.1 I. I 1.1.1.1 3-wDoreami 611.1. III 1=1.1 =1=1.1=	mm 	 =m	m mmm","2","336","403","189","203","1348","960"
"302802","effective May 01, 2017 (Effective Date),,	.z. 	d rw","1","192","713","293","332","1518","2147"
"299790","Name: arnzeh Ba	stafaTitiet Count.	Signature:","3","129","380","870","1021","942","1322"
"303102","July 22, 2014","1","406","558","1045","1075","936","1314"
"302009","effective from 1st Oct, 2012","2","443","803","455","524","1518","1964"
"302039",": -0;riii.i. iii 6","1","325","455","602","638","936","1300"
"301980","January 1 2006Effective Date","1","496","800","848","944","1225","1773"
"302011","January 1st, 2010 Effective Date","1","486","1060","1007","1132","1518","2126"
"301367","17 April 2015 (the Effective Date)ni	#Irinn	; e.t. 4-t e4","9","538","839","179","224","936","1324"
"301982","January 1st. 2015Effective Date","1","459","749","860","939","1225","1584.9899902"
"301983","January 1st 2012","1","284","583","1009","1074","1225","1738.9899902"
"301984","EflL	01/07/2005FROM","1","319","570","936","1061","1225","1716.9699707"
"302012","January 1st, 2015 Effective Date","1","502","968","1071","1233","1518","1964"
"301986","June ist 2015Effective Date","1","523","769","751","899","1225","1584.9899902"
"298260","For a High Quality version, kindly refer to the Key term Excel Downloa(","1","128","763","0","64","936","1324"
"301988","Effective Date 01/08/2015","2","391","774","988","1106","1225","1584.9899902"
"302048","01/0112016","1","315","438","586","623","936","1300"
"299867","Nepo,e.1.11JrVtilJteri1/4:1::.	 r	 aid.7..1- ...V	AP.F.-LL.N.V.1%.:1:09:6,%15:re	  1.--e.+e	   .","2","365","613","600","676","942","1322"
"303120","=1/1/2016___","2","344","441","807","848","936","1306"
"299875","This ATM Software Maintenance Agreement is made and entered into at Karachi on this 28'h, day of March,2017.","1","127","766","760","852","942","1322"
"301991","February ist, 2011","1","268","601","899","960","1225","1748"
"303055","3. WARD/EFFECTIVE DATE27-Jan-2015","1","334","502","182","234","1225","1584.9899902"
"303057","October 6, 2016","1","108","306","260","304","1225","1586.9699707"
"302893","effective as from [26th May 2017]","1","838","1191","232","266","1518","2147"
"302900","!ffective January 1, 2017 (Amendment'","1","399","889","364","414","1518","1964"
"302915","22-Jun-201L_.","1","792","1007","1709","1760","1518","1964"
"302776","Raised: 21/06/17","1","380","686","348","386","1225","1733"
"300230","ti 1.:Wf.f.::: r..?.::z1::::::::. ::::5'.::.  :. ..... ......-,... :. .: ... v :. ..: .6.: .. ..    ....   . -::   e :  tiff' ' 7!. -0 Iv. .10 ..e r		'	:	:.	1;1 '...7:.. 1%. 	.'..-  '  1:1:-. 1: :L. I ,... ..:  .1.9.-:::. r. :kir .1 !. 9 '::.. I:: ':)::. c .. .. ., : . . . . . . . 'z -;:e.1:. .......'...'	... . ..I:-'1'..%i ';'. Z ' :%.': .1. '1.' .","2","144","382","1733","1775","1518","2131"
"300238","ir-__0_12e_______I L ai.k","16","386","742","858","908","1225","1719.9899902"
"299622","Sep-2015","1","736","898","393","469","1518","2131"
"299626","1 14Ai Pwel 2 . /16","1","951","1146","1148","1186","1518","2131"
"300236","..2LI-A 12","1","251","409","1335","1381","1225","1719.9899902"
"303127","30th January 2017","1","913","1104","695","732","1225","1733"
"299646","June 11 2015","2","377","505","412","443","1518","2131"
"303128","30th March 2017","1","341","547","381","423","1225","1733"
"21149","Date d'effetDuree du contrat Date de facturation Periode facturee Conditions de reglement Montant de la facture ler Milt 199924 mois renouvelablesle 10 preeedant la pthriode a echoir03 moisPrelevement Automatique2721,60 FF HT + TVA en vigueur","1","142","1108","1132","1463","1551","2192"
"21452","ARTICLE 2 - NODALITTIS D'APPLIOATION Er CONDITIONS DE PAIEMENTLa contrat sera regi par lea donnees suivantes. Premiere date d'effet du contrat et curse initiale : 01/01/1998 pour 12 mois(les dates d'effet pour Cheque ligne du contrat sont indiqueee dane l'Annexe 1). Made de renouvellement	Tacite reconduotion. Pariodicit6 de facturation	: Annuelle d'avance. Conditions de reglement	: Payable comptant a reception de facture","1","94","1288","928","1130","1551","2192"
"303130","?i-w t'll","3","683","791","1320","1369","1225","1584.9899902"
"299627","-","1","210","384","971","1005","936","1314"
"303264","._._.61_ 7,,L_,:2o/S-","12","441","697","696","771","936","1314"
"303137","March 15, 2015 (Effective Date).","1","241","568","321","358","1225","1584.9899902"
"299623","Le: 7'1' January, 2016","3","474","608","856","894","936","1314"
"303266",".0	. 4-1..  .	-   ....	< ' .1 :eki 7.' a. . 1Y .1.59.11 I%. .	.' I .	m..  .)6:.1%2 ...51.1.  ..	. 	.11:4-: P'ApLempro'&1.91901-iri 91=10100arb miliVi WE ie.% 141raerm'thai tharth.YE'. -{	..-	ti	t..'	k.. . '.r.	.7.1- ;e	.			e. 11,...sri.II	IL	L5","1","557","733","1102","1142","936","1314"
"303138","...	1","2","996","1126","827","876","1225","1594.9899902"
"302821","Dav(A_PIAlig . AI, 4 . A iRaiffeisenbankPrattigau-Davos Genosienchaft","1","63","448","1109","1175","975","1378"
"302830","1 Mirz 2017Rajtff	G8u-3ippera","1","80","472","1120","1197","975","1378"
"300239","5 June 2016","1","576","934","869","929","1518","2131"
"303267","1				r allri AP","2","989","1139","819","876","1225","1594.9899902"
"300243","uecumes part of the Agreement executed on the 21't day ofDecember 2015 by and between The National Commercial Bank, hereinafter rpfprrpri tr,tha.	iklwrs","4","244","1268","317","378","1518","2131"
"300259","Date: 	e t..10v 20q,","2","702","1180","1680","1738","1518","2131"
"299823","Iii/c/I74/9","1","606","747","883","923","936","1314"
"299831","..  .. e  e .1 	   ..   I   '  e  :      	'.	e '  '  : 	.	 .n. e. .  . .. r      .    . .      .  .. e        ..'    . '   e      	 ..n% ..'   ^	.  e .1      ' .   e    	.   	.	      ee.   :  1 :  -  ;  '      '%		e	 .	e		. 	e e	I  I   e n n., I   'I I   ,e1	,	.	.  i	.e I	. 	I...	,} 	'	e '.	' I .A.r	 .	nI 	..  	 -e	';	 	'I	I	..	.I	 		eI	1..     .. 1.	 .	:. 	.				...  	.	 .. 	.   	  	 .  .....In e;1n  '-ni'In''.1.1 '..1.	     	.  	ti	 I  e e         . .	. ..	   	 	 e  	 e	.	  	.	 	n.e'... .	r	 .  .. .	  nein%	   ..	. r - n	_  % 	e	....4	...	  	 	....  ... in	 % .. %	.. .	 	 	  'n......  .				..						e			..		 .	.	'.	.		..  n	.		n	 ..    . r .. }. e  .	...'.. ..1.1...... } .. . . e' ...	    ' 			. 	% I. .1  }  I. .. ....  I e   ee	. e nnn e nn	.	...%.  -  	 		.","1","595","709","682","727","936","1314"
"299835","L.	.ti. ,ii, PelLre 2:'7","1","636","817","680","711","936","1314"
"303159","..i.Lzih, '0.ln,m_ 0	........ i ri oft Les 11,	Tr mi","2","254","399","1387","1450","1225","1584.9899902"
"301873","1	2.o t","1","743","925","1485","1535","1225","1731.9699707"
"303184","3 July 1 2017","1","395","514","195","231","1225","1584.9899902"
"299630","--1- r'	v1 A' ''AV AYA -Pi 1'110011-","2","982","1327","1626","1697","1518","2131"
"299847","1 JULY 2015,","1","365","486","524","568","936","1314"
"303182",".-	.1E_ 7 II 4. in_m_	i4 al .1 Al. M, S. 1 M. i A. 'ISeptember 27th, 2016","1","337","504","169","194","1225","1733"
"303248","27Date","8","244","487","1354","1452","1225","1731.9699707"
"303214","Effective Date: 19 July, 2017","3","459","763","160","198","1225","1584.9899902"
"303001","l_ir. (c /17","6","1139","1371","1104","1163","1518","2147"
"302835","_i_	^ i IN h.,	km, 'IAA. le limd A AL ..I. 'a I. 14	lkApril 18, 2016. 1","1","81","218","151","181","936","1211"
"302836","This Statement of Work (SOW) between NCR Corporation and Wesco, Inc. is effective as of June 9, 2016. It describes the Services NCR will provide in support of the Project described in Exhibit A and is","1","102","834","141","192","936","1211"
"274596","2. MODALITE D'APPLICATION ET CONDITIONS DE PAIEMENTL'avenant sera regi par les donnees suivantes :-	Premiere date d'effet et duree	01 janvier 2006. Le contrat est conclu pour une periode initiale allant jusqu'a la date du 30 septembre 2006. Au terrne de sa periode initiale de validite, le contrat pourra etre reconduit par tacite reconduction dans la mesure 00 aucune des PARTIES ne l'aura prealablement &nonce par lettre recommandee avec accuse de reception, moyennant un preavis de trois (3) mois donne avant l'echeance du 30 septembre 2006.Periociicite de facturation	trimestrielle, terme a echoirConditions de reglement	a reception de facture","4","230","1328","464","818","1551","2192"
"302838","5 n cic","1","179","305","819","866","936","1163"
"302839","A j	A IL IL&A. A. A lieDate","1","506","652","798","863","936","1161"
"303435","'9' t i  o 7","1","505","700","809","851","936","1165"
"303436","Typed n e0","1","499","668","792","846","936","1163"
"302842","February 1, 2.{)10","1","512","664","170","207","936","1211"
"303194","I affective 07/01/2017,.43tvi","7","864","1072","239","290","1225","1584.9899902"
"303437","fvfe- lod,fat Wer/f/tOtt. Datum KundeStempel uV. a JevR	..41/44,7),","2","39","484","515","757","975","1379"
"303056","0 2	S G-ID 2 0 1 6","1","1316","1450","1758","1842","1518","1964"
"303050","May 10, 2017,","1","571","744","353","386","1518","1964"
"302928","effective June 21st, 2016 (Effective Date),","1","155","697","369","411","1518","1964"
"303197","For a High Quality version, kindly refer to the Key term Excel Download","1","314","906","0","27","1225","1731.9699707"
"303178","For a High Quality version, kindly refer to the Key term Excel Download","1","310","922","0","28","1225","1731.9699707"
"303275","For a High Quality version, kindly refer to the Key term Excel Download","1","121","821","0","56","936","1211"
"303250","(9 ( ( - ) r?e /1","2","744","931","1132","1186","1225","1733"
"302884","22/6/2017","3","313","646","592","665","1518","2148"
"303186","Title5-17-17","9","649","751","1264","1314","1225","1584.9899902"
"303278","For a High Quality version, kindly refer to the Key term Excel Download","1","118","798","0","52","936","1211"
"303284","For a High Quality version, kindly refer to the Key term Excel Download","1","78","823","0","46","936","1211"
"302888","Effective Date: July 01. 2017","5","575","939","300","358","1518","2147"
"303291","For a High Quality version, kindly refer to the Key term Excel Download","1","70","817","0","61","936","1211"
"302934","3 1 MAY 2017","1","461","754","1871","1945","1518","2148"
"303292","For a High Quality version, kindly refer to the Key term Excel Download","1","57","869","0","52","936","1211"
"302985","Date:","2","782","1088","1622","1661","1518","1964"
"143603","DATE","1","1171","1482","492","669","1518","1963"
"302989","effective 07/01/2017,","7","1080","1401","293","346","1518","1964"
"303008","January 19, 2017","1","446","651","392","441","1518","1964"
"302777","I: 21/06/17","1","362","489","269","302","936","1324"
"303022",".011)GATE1","5","658","888","1092","1264","1518","2147"
"303019","July Pi, 2017 (","5","485","635","415","463","1518","2147"
"303457",":4e,...-?me 02? ao/","2","535","761","217","256","936","1211"
"303554","Contra' I_ Effective Date	I1-Sco- 17","1","69","327","159","177","936","662"
"298124","y 01, 2017 (Effective Date),","3","323","672","249","291","1518","1964"
"291735","December 221 2016","1","137","590","300","398","1518","1964"
"294248","EFFECTIVE DATE: 1 1-16-2017...........................................................,..................................;..........,orarroqrarrarrar.rom 1.+AWA.,A.,k.,N,i..0-01.0...r,r0+.0......................................","1","204","749","364","407","1518","1977"
"294462","12/19/2015","2","875","1226","1488","1538","1518","1964"
"298150","May 25, 2017","1","225","283","83","106","1518","1173"
"303469","e March 01. 2017","1","352","491","239","268","936","1211"
"303565","1 im -num rb ii..1 IF = LEP s","2","658","778","198","243","936","1324"
"301561",".), January 01, 2015 I","1","380","486","208","229","940","1329"
"303460","J. 111 I.P	Toir 'wau' .M. .M. T T  .MoN. W	J. T .Nd. oN	91 .M. .1Nol Jo.  .effective February 10th, 2017","5","127","446","200","238","1225","1584.9899902"
"301566","Effective Date 1' day of April 2011 (","1","339","607","186","211","940","1311"
"303783","DATE","3","413","532","379","445","936","662"
"303781","August 1, 2016","1","390","551","247","283","1225","1584.9899902"
"303349","s effective as of 1St February, 2016.","2","556","962","341","378","1518","1964"
"303782","-7 i2ii 16( -	__.","2","984","1135","1028","1072","1225","1584.9899902"
"303396","6/17/2017","1","621","696","88","116","936","1323"
"303462","'LTOZ 'POT aunt'","1","778","937","355","388","1225","1584.9899902"
"302986","LI","12","762","1157","510","594","1518","1964"
"303784","23 MN/ #-P;Picau-","1","572","742","628","668","936","1211"
"303490","t effective July the Is' , 2017","3","324","586","302","331","1225","1733"
"303498","August 1', 2017","3","927","1092","243","282","1225","1733"
"303530","lUelii.e1 -Aug-1 7","1","130","169","117","130","940","726"
"303785","f 151 October 2014","1","658","801","280","314","936","1324"
"303377","12th August, 2016 t","3","524","667","221","254","936","1324"
"303017","0/13/q","12","591","845","1102","1191","1518","2147"
"302704","1: 21/06/17","1","357","497","264","299","936","1324"
"303516","Dated 02.01.2017","2","874","1074","218","277","1225","1733"
"301565","first day of December, 2011.","1","115","335","329","352","940","1329"
"303024","iii40 i2,","11","715","1007","509","587","1518","1964"
"303028","effective June 5, 2017 (Effective Date)1","2","136","623","316","349","1518","2147"
"303030","ru	rutom i..Prcucrt Ecz	DATE -7-I 1 6)","2","768","1499","1248","1369","1518","1964"
"301570","oliCitoi(","2","573","704","658","686","940","1329"
"303464","-		 T1	mimi V 1 WM	ill II I %FrJune 29, 2012kf. I Pin in + eri fri  4 6.4 rk n","1","707","821","314","341","936","1211"
"303438","is effective as of July 11, 2002.","1","161","555","577","636","1496","1934"
"303474","u)..,S .0/4/11.-vdrEffeciive Date)","1","412","656","480","533","936","1324"
"303475","6/27/2016","4","703","781","411","438","936","663"
"301573","first day of April, 2011","1","344","507","207","232","940","1329"
"303105","_","2","494","783","1475","1568","1725","2232"
"303696","30 June 2017)","2","510","689","429","461","1518","2147"
"303479","I Ina la idra LILO al- Ill Pied L I liP kdkr l23rd May 2017. EtAFL deli ell	:II  -	NI -  l'im L Er% or IN 111- II .Ir Eh- 1","3","126","249","334","368","936","1324"
"303701","r 	       all30 June 2017","2","506","614","190","217","940","1330"
"303106","March 1, 2004 (the Effective Date).","1","974","1545","531","587","1725","2386"
"303570","=","4","913","1017","879","932","1518","1173"
"303503","4'	hi-	La   0 46 ..-0 .- a			a '","6","186","336","568","611","936","1324"
"303375","I8	P		111","5","715","903","1388","1513","1225","1733.9899902"
"303718","June 30, 2017","1","519","627","336","359","940","1216"
"303586","ath March 2017 (the Effective Date). I.","3","359","757","687","729","1518","2147"
"303504","on		, / 2","3","621","734","210","264","936","662"
"303607","c I- alCDI 7","1","1007","1332","1524","1591","1518","2146"
"303553","0","3","325","426","390","430","936","662"
"303541",".avv,. di	-.2-0 9","4","212","403","822","868","936","1211"
"303624","This Statement of Work (SOW) between NCR Corporation and IMB Bank is effective as of 23' June 2017. It describes the Services NCR will provide in support of the Project described in Exhibit","1","157","1358","338","404","1518","2147"
"303742","Li1J1 ifUliaLlUll, I1/4 .1.\\._June 26, 2017. ItPower Sell Imnle","2","111","242","183","226","936","1211"
"303691","1.41-1.1t6/13/17","3","1125","1305","633","752","1518","1073"
"303644","' 23rd January, 2017.","2","229","363","345","371","940","1330"
"303727","e June 30th, 2017 01","1","220","356","231","264","936","1211"
"303321","1st February, 2016,","1","452","573","270","292","940","1330"
"303655","1 June 23rd 2017,","3","401","509","274","297","940","1329"
"303346","--/S7./7","3","834","1000","410","452","1225","865.97998047"
"303374","r4	or e4,15P 1","3","862","1028","516","565","1225","865.97998047"
"303797","June 29, 2012","1","1157","1328","512","543","1518","1964"
"303344","DATED: 15th June 2017","8","539","730","324","369","1225","1733"
"303597","effective as of June 18th, 2017.","1","791","1167","439","482","1518","1964"
"303627","For a High Quality version, kindly refer to the Key term Excel Download","1","148","775","0","54","936","1211"
"303656","c/ /,,201j-7","5","516","692","290","323","940","1216"
"303662","Effective Date: June 19, 2017","1","101","344","179","217","940","1216"
"301796","Weiden, den 23.4.20Ock_,Ort, DatumKundearkasse Ob	tprdStempel and UnterschuftNCR D-86156 ugsburg","2","39","932","495","764","975","1379"
"303823","March 24th, 2017 (","1","175","314","192","217","940","1216"
"303824","6/28/2017","1","750","807","109","134","940","1216"
"295107","Orl, DatumKundeStempel and Unterschrlft		5. Mai 2011			NOR	Girr.ht I				Augsburg, den NCR GmbH	Pcixf,::ch 10 00 90 ,			5311-Zief! 1f10			IMILJM eielab u9N7sur9			/	(Ta	OS 2114064)		Stempel and Unterschrlft","2","43","942","511","732","975","1379"
"295108","Ort, DatumKundeStempel und UnterschriftUknew 8tra6e 100 Pootfach 100090ugthurp0821/ 4094Augsburg, den NCR GmbHStempel und Unterschrift","2","47","919","532","725","975","1379"
"303318","Executed this 23	day of June 2017.","2","141","438","192","227","940","1216"
"303335","6-27-17","4","711","777","328","360","940","666"
"303682","effective June 23, 2017","1","946","1269","498","535","1518","1964"
"303386","6-27A 7.","4","703","770","362","387","940","726"
"303418","6/zy/Aw 6","5","762","870","820","853","940","1215"
"303689","June 30, 2016","1","1040","1206","361","412","1518","1964"
"303838",",I Line 22	, 2017","1","425","754","184","223","1225","1584.9899902"
"303843","is effective as of 02.07.2017.","1","189","447","314","340","1225","1733"
"303417",",e,t-/or/2-Ai '.7","4","757","859","824","853","940","1215"
"303854",", E .- 2c)1-?DATE","3","838","994","313","372","1225","865.97998047"
"303861","Jun 30, 2017","3","631","791","1263","1304","1225","1584.9899902"
"303870","<27 JUNE 2017>","1","509","726","1040","1110","1225","1730.9899902"
"303885","ILA% 1 Cr(m 6 P.,LA","3","434","607","903","949","1225","1733"
"303893","Effective Date: May Pt, 2017.","1","452","774","194","223","1225","1584.9899902"
"303898","of 5th April, 2017.","2","307","447","512","536","1225","1733"
"18228","El rl jest RecommendedReg west DaieE	1 9-NDV-1 0","1","68","263","1115","1138","936","1324"
"303910","Fait en deux exemplairesA Paris, le 29 Mars 2001","2","799","1200","872","1061","1551","2192"
"14489","Earl iesL Reco mrnendedReq ues L Date:	02-Jan--11","1","76","252","1154","1174","936","1324"
"303899","January 26th, 2011;","1","474","634","308","334","1225","1605.9899902"
"19110","For a High Quality version, kindly refer to the Key term Excel Download","1","135","788","0","43","940","665"
"30076",": July 21, 2011","2","768","913","660","687","1225","1573.9899902"
"130587","i	ki	1 i","4","500","608","797","851","940","1195"
"131171","-.	OMCI.171.11P.ii ii	jos ink.e).11","1","261","535","1294","1347","1518","1964"
"130681","1'2 Nov. 2014","2","210","329","534","563","940","1327"
"131141","November 1, 2009","1","752","940","382","421","1518","1964"
"131019","Amendment Effective Date of August 9, 2000.	....	,	+a - .n.a -...	v!","1","848","1448","694","742","1518","1963"
"130947","March 1, 2009","1","624","863","322","375","1518","1973"
"130908","December 16, 2009","1","620","858","423","456","1518","1964"
"130790","ill","3","200","329","487","522","940","1219"
"130625","March 14. 2013","1","223","349","330","355","940","1216"
"130696","January 1, 2009","1","723","854","271","307","940","1216"
"130957","08","5","884","1255","579","661","1518","1963"
"130968",".1.L. day of March 2013.","3","381","880","843","961","1518","1955"
"130798",",","1","649","767","692","714","940","1215"
"131186","Date: 	ve","1","764","1518","1570","1724","1518","1964"
"303911","-	I	-	' r r 4. .. m  n ..  m m ..	.I.  .1. .M.'	.1. .I. I. 101.1 I 1 I NOW I .1 Ihel. i 11 %FP lidJanuary 1, 2006 (Effective Date),","1","791","1072","316","352","1378.9899902","1784.9899902"
"130757","Effective Date: June 1, 2008","1","360","576","142","173","940","1216"
"131236","e.) --.- -%","1","883","1159","1741","1812","1518","1963"
"303900","For a High Quality version, kindly refer to the Key term Excel Download","1","314","907","0","31","1225","1731.9699707"
"303309","1 1 .6 CZ E5 1:5Sep-1-2017el mil","1","179","223","145","161","940","726"
"303864","049 il044.","4","434","606","513","592","1225","865.97998047"
"302832",".1 1 st day eiT My, 2003","1","1104","1307","464","509","1518","1964"
"303032","3/3/2017","5","1211","1377","1204","1254","1518","1964"
"302844","r 1.4.4...,....... 1..-... Y. le .n-- JAs4L SePLA.11--iftr 24' Ls","69","490","885","233","287","936","1324"
"303048","1	II II M gm!	ir 'IIMarch 112017","1","228","401","332","377","1518","1964"
"131013","slo 494 41 Date","5","763","1042","1477","1547","1518","1961"
"303962","rIIIaII","3","490","551","305","333","940","1330"
"131036","r December, 2005.","1","658","921","1265","1308","1518","2147"
"303920","For a High Quality version, kindly refer to the Key term Excel Download","1","65","872","0","45","936","1211"
"131095","02. July 2012 1","1","502","665","701","762","1518","2147"
"303917","For a High Quality version, kindly refer to the Key term Excel Download","1","68","849","0","40","936","1211"
"303916","For a High Quality version, kindly refer to the Key term Excel Download","1","42","863","0","50","936","1211"
"131104","n	1 t thiC fa /-61):IV1 ell/ In	't/","6","1068","1312","101","232","1518","2145"
"303915","For a High Quality version, kindly refer to the Key term Excel Download","1","75","818","0","61","936","1211"
"303992",": 0210612017","1","145","237","632","657","940","1328"
"131120","16th day of April, 2003","1","586","856","1228","1302","1518","2146"
"303913","For a High Quality version, kindly refer to the Key term Excel Download","1","56","813","0","63","936","1211"
"129549","Effective Date: 9-22-09","1","871","1260","318","360","1518","1926"
"129622","May 25, 2010","1","489","658","447","507","1518","1964"
"129680","October 1,X009 1","1","497","721","425","465","1518","1963"
"129688","XXX day of February, 2011","1","431","742","193","241","1518","1964"
"130152","if February 11 2006","1","1057","1362","564","605","1518","1963"
"130262","It t","7","896","1128","916","967","1518","1964"
"130325","3ffective September 19, 2007 (Amendment),fu A Arizufri	Mrin","1","671","1218","512","571","1518","1963"
"130333","29-Sep-F2006","1","1246","1425","1787","1867","1518","1963"
"303994","/dusted)0?	N","2","477","549","279","312","940","1216"
"130396","January 1, 2006","2","510","726","521","583","1518","1963"
"130439","January 1, 2016, i","1","110","373","446","481","1518","1969"
"130461","effective June 1, 20E","1","466","729","405","452","1518","1964"
"303998","4rr ~r## 	s6ifr1asfririr","7","98","220","1066","1109","940","1330"
"129495","Le oil- 40'icvisv-	A","2","881","1201","651","754","1518","1964"
"130339","==1-14-2015		1..I.F.r.T.....m..m..	..","1","904","1133","1288","1358","1518","2147"
"303955","3.0....LA:aE,. (3z' 1 7,","5","125","324","468","508","940","1330"
"130481","3-29-2016","1","912","1101","1286","1336","1518","2144"
"131132","1 0 9/o a","2","872","1219","1018","1098","1518","1963"
"130425","?: 5/20/16","4","245","507","1692","1785","1518","1964"
"130801","_1st day of 	March	 2010.","1","324","640","211","249","940","1216"
"130688","January 1, 2010","1","244","369","322","342","940","1216"
"131945","600Z 1 ifitmuuf","1","388","492","249","275","940","1215"
"131819","id A	L	lo- J=A","2","410","526","948","990","940","1330"
"131895","1219-14","3","141","222","481","516","940","1225"
"132084","April 4th, 2007","1","360","500","341","364","940","1216"
"303956","This Statement of Work (SOW) between NCR Corporation and 'MB Bank is effective as of 23' June 2017. It describes the Services NCR will provide in support of the Project described in Exhibit","1","114","802","201","249","940","1330"
"304080","June 21., 2017","1","612","777","286","334","1518","1964"
"304083","re c-C-17 Z. 20 1","1","482","839","236","318","1518","1964"
"305349","is effective as of 06.07.2017.","1","141","527","359","386","1518","1964"
"305490","For a High Quality version, kindly refer to the Key term Excel Download","1","0","1282","0","119","1518","1964"
"305492","For a High Quality version, kindly refer to the Key term Excel Download","1","189","1317","0","80","1518","1964"
"305493","For a High Quality version, kindly refer to the Key term Excel DownloadNCR Purchase Order	IYIMcDonald's All-in-One eSmarIClook	(Nick nn vellrns fickle to select_ All velInve fickle reentireAll","1","194","1408","0","151","1518","1964"
"305494","For a High Quality version, kindly refer to the Key term Excel Download","1","236","1438","7","78","1518","1964"
"305291","arisit1 July 44'211:11 7:","1","390","531","1000","1086","1225","1733"
"305282","it'","1","695","790","1415","1463","1225","1730.9899902"
"305269","is effective as of 06.07.2017.","1","186","462","360","384","1225","1733"
"305262","June 1st 2017","1","392","517","244","274","1225","1733"
"305260","Effective Date: July 2nd, 2017","1","459","813","176","214","1225","1584.9899902"
"305766","effective July 2, 2017 i","1","157","371","236","269","1225","1584.9899902"
"305249","-	-effective as of June 23, 2017,","1","246","534","256","288","1225","1584.9899902"
"305248","Effective Date: June 23, 2017","1","464","794","117","165","1225","1584.9899902"
"305247","6/a22I'120/ ?","2","207","454","1049","1097","1225","1584.9899902"
"305245","s effective as of May 18th 2017","1","482","767","327","361","1225","1584.9899902"
"305244","F I-4- 101j in Ai i'li 'Vi 1'6 '1.11.1.	T 1' 410 Al. .116 .1. % 10L 1. il A I..F %ail.	.,1_ Vieffoctive as of July 76, 2O17","1","256","504","304","340","1225","1584.9899902"
"305238",". if,f(-{ itZ2,","2","717","983","1007","1085","1225","1584.9899902"
"305233","A nil 1' 201C","2","507","650","917","959","1225","1584.9899902"
"305231","DATE	 24 March 2010","1","754","1045","115","163","1225","1584.9899902"
"305228","f December 16, 2014,","1","361","554","234","258","1225","1583.9899902"
"305083","July 29, 2016","1","98","294","1463","1528","1225","1733"
"305070","2q /9/205","1","258","588","247","296","1225","1731.9699707"
"305069","e: 1$t December 2016","2","183","425","1308","1396","1225","1731.9699707"
"305068","m ro mu rm.I	Irlr Irl	11l		ill 111 H -N Ir1.1111. ill 11.111 ild im i iii 1111 10. 10. 1.9.	el	..4","8","246","432","766","815","1225","1730.9899902"
"305067","k 5imi nu mu nu mu mu rirliIrroi Ai N pd-ri-lariarm-mi 11 mi.mrmi mi 101 im im,mmimrmi mu ,., nu nu nu nrEll ri Y 11-1-1","4","244","481","692","776","1225","1730.9899902"
"305321","0501-111.00'Date/ Fecha","21","141","338","1316","1386","1225","1584.9899902"
"305777","For a High Quality version, kindly refer to the Key term Excel Download","1","200","1085","0","42","1225","1584.9899902"
"305778","For a High Quality version, kindly refer to the Key term Excel Download","1","200","1079","0","29","1225","1584.9899902"
"305782","For a High Quality version, kindly refer to the Key term Excel Download","1","154","1084","0","44","1225","1584.9899902"
"305783","For a High Quality version, kindly refer to the Key term Excel Download","1","201","1009","4","36","1225","1584.9899902"
"305787","14th day of June, 2006","1","444","669","381","421","1225","1730.9899902"
"305788","Effective Date of April 1, 2015.","1","124","444","320","354","1225","1575.9899902"
"305791","effective December 23, 2015","1","314","590","187","226","1225","1584.9899902"
"305826","1 DA I L APPROVLD.24th July 2017","3","844","1029","549","599","1225","1733.9899902"
"305825","as of 11.07.2017.","1","168","331","206","229","1225","1584.9899902"
"305815","Date: AI P 0	2017","1","695","964","1075","1164","1225","1733"
"305981","day of 	2009","1","601","951","312","384","1225","1730.9899902"
"305797",".k4-14141146;.g4.41L.W-egzi....10/30/2013","4","248","427","1349","1402","1225","1733.9899902"
"305792","This Amendment #3 effective November 1, 2012","1","145","630","337","385","1225","1584.9899902"
"305790","r: 13 July 2016","9","794","982","228","276","1225","1584.9899902"
"305293","co ii--1' - V li 11 41 4... c ef","2","270","479","873","930","1225","1733"
"305575","LPti; I C6 / 7","3","965","1123","1045","1129","1225","1584.9899902"
"305602","6/28/2017","5","397","609","546","616","1225","945.99401855"
"305568","Effective Date: July 7, 2017","6","463","762","154","210","1225","1584.9899902"
"305563","effective as of 06.07.2017.","3","163","422","288","317","1225","1584.9899902"
"305546","L.Mi I t","7","926","1072","550","605","1225","945.99401855"
"305515","Effective Date: May 1, 2017.","1","483","773","241","274","1225","1733"
"305502"," 1- Adirlime.:40101.1P.VC;PC,1641r IL","2","212","374","449","530","1225","1584.9899902"
"305501","effective July lit, 2017","2","174","393","253","279","1225","1733"
"305499","I	4.irielLiCi I I Lrtri TriniriciaFfie","2","194","384","1356","1425","1225","1584.9899902"
"305246","IP I=.1 .4. rr	1-.1' ill. P Im","3","983","1153","812","868","1225","1733"
"306092","February l ' 2017 1","1","415","581","267","300","1225","1733"
"305351","EFFECTIVE DATE: I 11 /14/16","1","74","421","269","321","1225","1584.9899902"
"305348","Me	rti s here42k 1. a Is	. 1","11","129","289","335","388","1225","1730.9899902"
"305289","Date: I Ltili.61-92017 .","1","718","964","823","922","1225","1733"
"284862","Date: December 14, 2016","9","145","529","1343","1398","1407.9899902","1991"
"306344","c6 62ozuAugsburg, den NCR GmbHNM GmbHomet StroiNe 160Crek...Si 100090se136 AugsburgWoke OS 21 /400-*Stempel and Unterschrift","2","828","1499","830","1192","1551","2194"
"305872","June 15, 2017,","5","127","239","206","228","940","1216"
"305643","71 ff iio(c-17","3","447","636","494","546","1225","865.97998047"
"305745","7/43ict)","3","449","605","686","755","1225","865.97998047"
"305606","4c. 42. in","6","237","429","846","907","1225","1584.9899902"
"306354","DATE May 25, 1017","1","1070","1194","88","133","1225","867.99700928"
"305869","March 1, 2015","1","346","454","174","200","940","1216"
"305873","June 15, 2017.","1","128","233","209","229","940","1216"
"305874","February 22, 2016,","1","329","478","334","361","940","1330"
"305609","ici4ck, .P..0 :)'-o 09","1","405","655","320","385","1225","1733"
"305866","IN p	MI ^ C- . im mm-1$t January 2010","1","705","836","365","397","940","1329"
"305976","2,0	I Jet 4.- 2,oi Al","6","153","338","407","454","940","1328"
"305966","17 July 2017","15","159","277","928","968","940","1216"
"305955","11	41	ii 0 * * * i i* 4 II li 4 a a. 41. 6 04 b II d 41 i 110  I 41 N. P 43icill 711- ll 'a; peg=","11","487","654","675","734","940","1328"
"305939","DATE July 14, 2017","1","829","918","78","104","940","666"
"305920","DATE July 14, 2017","1","822","921","80","99","940","664"
"305919","i ir,:-.0 7 --J 2),) 'I?","3","700","820","1108","1136","940","1330"
"305901",":10 47dPii, Lis- 1,0 / 7","6","150","313","417","449","940","1328"
"306150","For a High Quality version, kindly refer to the Key term Excel Download","1","174","1018","0","51","1225","1584.9899902"
"306179","e June 15, 20171","3","377","513","255","283","1225","1584.9899902"
"306175","30 March, 2017","7","181","377","249","280","1225","1733"
"305895","This Statement of Work (SOW) between NCR Global LTD. and Tesco Stores Ltd. is effective as of 1s1 of July, 2017. It describes the Services NCR will provide in support of the Project described in Exhibit A","1","141","792","298","340","940","1330"
"306107","0: March 9, 2017","1","682","935","1027","1096","1225","1584.9899902"
"306022","For a High Quality version, kindly refer to the Key term Excel Download","1","159","775","0","49","940","726"
"306141","Effective Date: 1 July, 2017","1","483","785","174","218","1225","1733"
"306025","17.07.2017","2","719","817","416","449","940","1329"
"306026","17.07.2017","2","716","814","717","749","940","1329"
"306047","For a High Quality version, kindly refer to the Key term Excel Download","1","161","777","0","46","940","1216"
"306050","July 4, 2017","1","142","245","201","244","940","1328"
"306058","For a High Quality version, kindly refer to the Key term Excel Download","1","137","806","0","44","940","1216"
"306076","Effective Date.: August 1, 21)17","3","449","799","224","258","1225","1733"
"306062","17.07.2017","2","719","814","420","449","940","1329"
"306067","14.07.2017","2","720","816","808","835","940","1329"
"306077","17.07.2017","2","931","1068","577","636","1225","1733"
"306102","For a High Quality version, kindly refer to the Key term Excel Download","1","174","1024","0","48","1225","1584.9899902"
"306104","For a High Quality version, kindly refer to the Key term Excel Download","1","270","941","0","41","1225","945.99401855"
"305990","... _ _	- .r.-/ 1S 1","2","148","268","462","484","940","1207"
"306101","For a High Quality version, kindly refer to the Key term Excel Download","1","154","1018","0","51","1225","1584.9899902"
"306414","For a High Quality version, kindly refer to the Key term Excel Download","1","192","1016","0","48","1225","1584.9899902"
"306415","For a High Quality version, kindly refer to the Key term Excel Download","1","172","1074","0","37","1225","1584.9899902"
"306416","For a High Quality version, kindly refer to the Key term Excel Download'","1","194","1001","0","40","1225","1584.9899902"
"306417","For a High Quality version, kindly refer to the Key term Excel Download","1","211","1009","0","34","1225","1584.9899902"
"305995","vti 1 le i 7a/7-","1","579","743","1132","1169","940","1329"
"306418","For a High Quality version, kindly refer to the Key term Excel Download","1","176","1041","0","33","1225","1584.9899902"
"306419","For a High Quality version, kindly refer to the Key term Excel Download","1","213","1017","0","39","1225","1584.9899902"
"306420","For a High Quality version, kindly refer to the Key term Excel Download'","1","195","1002","0","44","1225","1584.9899902"
"306004","o-- 7	2-c>i 7","1","578","760","1150","1188","940","1329"
"306398","rm.. LI 0/1163","6","249","406","1457","1506","1225","1733.9899902"
"306015","17.07.2017","3","724","809","343","370","940","1329"
"306399","31/07/2017","4","247","383","1203","1257","1225","1733.9899902"
"306057","May 241201T","1","139","236","357","378","940","1216"
"305956","DATELI/e7/Z42/7","4","460","628","534","596","1225","945.99401855"
"306413","i, effective July 11, 20] 71.","2","741","916","297","324","1225","1584.9899902"
"306412","el  dri, Vio )","2","679","1002","774","843","1225","1584.9899902"
"306491","effuctive July 11, 2017","1","234","415","270","297","1225","1584.9899902"
"306411","cffi.octive as i..1f.luly 11, 201 7-","1","219","444","346","365","1225","1584.9899902"
"305894","Effective Date: July 1, 2017","1","697","1006","242","284","1225","1584.9899902"
"305877",") effective July 1, 2017 (","1","760","916","221","248","1225","1584.9899902"
"305876","July 1, 2017","1","631","747","361","390","1225","1584.9899902"
"305875","[s effective as of eptenaber 1, 2015 i","1","273","554","175","205","1225","1584.9899902"
"132865","Effective Date: March 1, 2005","7","486","949","112","172","1317.9799805","1704.9899902"
"305871","Effective Date: May 1, 2013","1","469","770","334","390","1225","1584.9899902"
"305865","30 la, ,ied","1","494","691","436","485","1225","1731.9699707"
"305888","Date","3","868","1098","132","201","1225","1733.9899902"
"305879","I July 6, , 201 7","1","829","968","201","234","1225","1584.9899902"
"305969","s 17th April, 2015","1","647","831","1189","1236","1225","1733"
"305991","3fieptemlaer 1, 2015 C1","1","384","560","171","206","1225","1584.9899902"
"306016","la  July_201 7","9","209","374","1376","1421","1225","1584.9899902"
"306029","Effective Date: May 12th i 201.1.","1","452","771","231","286","1225","1733"
"306039","July 2017","10","214","408","1329","1383","1225","1584.9899902"
"306042","it effective May 1, 2017","1","276","479","222","254","1225","1584.9899902"
"306053","n	5'-21-i7","4","821","982","317","363","1225","865.97998047"
"306071","Effective Date: August 1, 2017","1","461","786","222","264","1225","1728"
"305628","20-Jul-2017","1","1053","1225","126","180","1225","1584.9899902"
"305627","20 Jul 2017","1","1063","1179","128","154","1225","1584.9899902"
"305625","20-Jul-2017","1","1034","1190","118","153","1225","1584.9899902"
"305619",".2, - 1 i--% .-- 0 0","5","672","910","1004","1061","1225","1584.9899902"
"305618",".","2","384","584","885","944","1225","1584.9899902"
"305681","August 1, 2017","1","397","552","261","287","1225","1584.9899902"
"305620","effective as of Jun 10,IL 7	 .. IN Jom el ge E f A2016","1","414","659","287","329","1225","1584.9899902"
"306207","17 July 2017","1","867","969","233","270","1225","1733"
"306208","C/C/1.-.","8","394","534","492","577","1225","865.97998047"
"306244","17 July 2017","1","888","1014","231","270","1225","1733"
"306249","lASE ORDER #	DATE 	/46","4","896","1096","1082","1165","1225","1584.9899902"
"306315","Effective Date: August 1, 2017","1","455","791","160","203","1225","1584.9899902"
"145605","January 1, 2011","1","578","911","953","1045","1334.9699707","1728"
"301270","This Enterprise Software License Agreement (Agreement), is entered into on this 30th September 2016 and made effective as of 23 June, 2016, confirms the agreements reached by NCR (NZ) Corporation (Company Number 2827) of Level 8, 63 Albert Street, Auckland, New Zealand (NCR) and ASB Bank Limited of ASB North Wharf, 12 Jellicoe Street, Auckland, 1010, New Zealand (you or Customer) regarding all the licenses Customer acquires from NCR under this Agreement for any of the NCR software products listed in the table below (the Software) for which Customer has placed purchase order on 23 June 2016 (an Order).","1","85","879","161","322","945","1336"
"305845","Dated May 13, 2004","1","422","649","84","139","1068","1338"
"301269","This Amendment effective 30th September, 2016 (Amendment), modifies the Services Schedule dated 1' July 2014 for ATM Software Maintenance and Support Services between NCR (NZ) Corporation, (NCR) having its office at Level 8, AMI House, 63 Albert Street, Auckland New Zealand and ASB Bank Limited, (Bank) having its office at ASB North Wharf, 12 Jellicoe Street, Auckland, 1010, New Zealand (Services Schedule).","1","112","840","227","343","945","1336"
"306343",".ww5P-17","2","931","1034","903","946","1225","1549.9899902"
"306265","For a High Quality version, kindly refer to the Key term Excel Download","1","306","934","0","34","1225","945.99401855"
"306304","For a High Quality version, kindly refer to the Key term Excel Download","1","203","1013","0","40","1225","1584.9899902"
"306307","For a High Quality version, kindly refer to the Key term Excel Download","1","203","1025","0","43","1225","1584.9899902"
"306669","between ATMS INC, and NCR INTERNATIONAL INC (PUERTO RICO BRANCH), (NCR), is effective as of December 09, 2013. Capitalized terms not otherwise defined have the meanings stated in the Agreement.","1","151","1062","401","444","1225","1584.9899902"
"306318","Ln AmLlm e A .		I		r -II a","4","837","965","681","748","1225","1584.9899902"
"306299","June 5, 2017. It","1","351","505","412","440","1225","1584.9899902"
"306337","For a High Quality version, kindly refer to the Key term Excel Download","1","174","1095","0","64","1225","1584.9899902"
"184555","CLIENT-Meauls, Inc	lakfoant, 						 fqr 					_ 				'Alit 1-i d No pare) c","10","487","843","590","943","945","1223"
