(u'This', u'O')                    ,,('This', 'DT')
(u'Software', u'ORGANIZATION')     ,,('Software', 'NNP')
(u'Maintenance', u'ORGANIZATION')  ,,('Maintenance', 'NNP')
(u'Subscription', u'ORGANIZATION') ,,('Subscription', 'NNP')
(u'Service', u'ORGANIZATION')      ,,('Service', 'NNP')
(u'for', u'O')                     ,,('for', 'IN')
(u'ATMs', u'O')                    ,,('ATMs', 'NNP')
(u'Addendum', u'O')                ,,('Addendum', 'NNP')
(u'Addendum', u'O')                ,,('Addendum', 'NNP')
(u'supplements', u'O')             ,,('supplements', 'VBZ')
(u'the', u'O')                     ,,('the', 'DT')
(u'ATM', u'O')                     ,,('ATM', 'NNP')
(u'Services', u'O')                ,,('Services', 'NNPS')
(u'Agreement', u'O')               ,,('Agreement', 'NNP')
(u'Number', u'O')                  ,,('Number', 'NNP')
(u'2000116', u'O')                 ,,('2000116', 'CD')
(u'dated', u'O')                   ,,('dated', 'VBD')
(u'01082000', u'O')                ,,('01082000', 'CD')
(u'Master', u'O')                  ,,('Master', 'NNP')
(u'Agreement', u'O')               ,,('Agreement', 'NNP')
(u'between', u'O')                 ,,('between', 'IN')
(u'Royal', u'ORGANIZATION')        ,,('Royal', 'NNP')
(u'Bank', u'ORGANIZATION')         ,,('Bank', 'NNP')
(u'of', u'ORGANIZATION')           ,,('of', 'IN')
(u'Canada', u'ORGANIZATION')       ,,('Canada', 'NNP')
(u'and', u'O')                     ,,('and', 'CC')
(u'NCR', u'ORGANIZATION')          ,,('NCR', 'NNP')
(u'Canada', u'ORGANIZATION')       ,,('Canada', 'NNP')
(u'Ltd', u'ORGANIZATION')          ,,('Ltd', 'NNP')
(u'NCR', u'ORGANIZATION')          ,,('NCR', 'NNP')
(u'and', u'O')                     ,,('and', 'CC')
(u'is', u'O')                      ,,('is', 'VBZ')
(u'entered', u'O')                 ,,('entered', 'VBN')
(u'into', u'O')                    ,,('into', 'IN')
(u'as', u'O')                      ,,('as', 'IN')
(u'of', u'O')                      ,,('of', 'IN')
(u'01112005', u'O')                ,,('01112005', 'CD')
(u'Effective', u'O')               ,,('Effective', 'JJ')
(u'Date', u'O')                    ,,('Date', 'NNP')
